^C:\!DEVELOPING\MIREA\QTCHESS\QTCHESSPROJECT\QTCHESS\QTCHESS\STARTWINDOW.H
C:\QT\QT5.1.1\5.1.1\MSVC2010_OPENGL\BIN\MOC.EXE
^C:\!DEVELOPING\MIREA\QTCHESS\QTCHESSPROJECT\QTCHESS\QTCHESS\MAINWINDOW.H
C:\QT\QT5.1.1\5.1.1\MSVC2010_OPENGL\BIN\MOC.EXE
^C:\!DEVELOPING\MIREA\QTCHESS\QTCHESSPROJECT\QTCHESS\QTCHESS\GLWIDGET.H
C:\QT\QT5.1.1\5.1.1\MSVC2010_OPENGL\BIN\MOC.EXE
^C:\!DEVELOPING\MIREA\QTCHESS\QTCHESSPROJECT\QTCHESS\QTCHESS\ADDRESSDIALOG.H
C:\QT\QT5.1.1\5.1.1\MSVC2010_OPENGL\BIN\MOC.EXE
^C:\!DEVELOPING\MIREA\QTCHESS\QTCHESSPROJECT\QTCHESS\QTCHESS\CHESS\PVP\CHESSPARTIYA.H
C:\QT\QT5.1.1\5.1.1\MSVC2010_OPENGL\BIN\MOC.EXE
^C:\!DEVELOPING\MIREA\QTCHESS\QTCHESSPROJECT\QTCHESS\QTCHESS\QCHESSRESOURCES.QRC
^C:\!DEVELOPING\MIREA\QTCHESS\QTCHESSPROJECT\QTCHESS\QTCHESS\CHESS\LAN\SERVER.H
C:\QT\QT5.1.1\5.1.1\MSVC2010_OPENGL\BIN\MOC.EXE
^C:\!DEVELOPING\MIREA\QTCHESS\QTCHESSPROJECT\QTCHESS\QTCHESS\CHESS\LAN\CLIENT.H
C:\QT\QT5.1.1\5.1.1\MSVC2010_OPENGL\BIN\MOC.EXE
^C:\!DEVELOPING\MIREA\QTCHESS\QTCHESSPROJECT\QTCHESS\QTCHESS\CHESSWINDOW.H
C:\QT\QT5.1.1\5.1.1\MSVC2010_OPENGL\BIN\MOC.EXE
^C:\!DEVELOPING\MIREA\QTCHESS\QTCHESSPROJECT\QTCHESS\QTCHESS\CHESS\RENDERING\RENDERINGENGINE.H
C:\QT\QT5.1.1\5.1.1\MSVC2010_OPENGL\BIN\MOC.EXE
