^C:\!DEVELOPING\MIREA\QTCHESS\QTCHESSPROJECT\QTCHESS\QTCHESS\RELEASE\MAIN.OBJ|C:\!DEVELOPING\MIREA\QTCHESS\QTCHESSPROJECT\QTCHESS\QTCHESS\RELEASE\MOC_STARTWINDOW.OBJ|C:\!DEVELOPING\MIREA\QTCHESS\QTCHESSPROJECT\QTCHESS\QTCHESS\RELEASE\STARTWINDOW.OBJ
C:\QT\QT5.1.1\5.1.1\MSVC2010_OPENGL\LIB\QTMAIN.LIB
C:\QT\QT5.1.1\5.1.1\MSVC2010_OPENGL\LIB\QT5CORE.LIB
C:\QT\QT5.1.1\5.1.1\MSVC2010_OPENGL\LIB\QT5OPENGL.LIB
C:\PROGRAM FILES (X86)\MICROSOFT SDKS\WINDOWS\V7.0A\LIB\OPENGL32.LIB
C:\PROGRAM FILES (X86)\MICROSOFT SDKS\WINDOWS\V7.0A\LIB\GLU32.LIB
C:\QT\QT5.1.1\5.1.1\MSVC2010_OPENGL\LIB\QT5WIDGETS.LIB
C:\PROGRAM FILES (X86)\MICROSOFT SDKS\WINDOWS\V7.0A\LIB\KERNEL32.LIB
C:\PROGRAM FILES (X86)\MICROSOFT SDKS\WINDOWS\V7.0A\LIB\USER32.LIB
C:\PROGRAM FILES (X86)\MICROSOFT SDKS\WINDOWS\V7.0A\LIB\GDI32.LIB
C:\PROGRAM FILES (X86)\MICROSOFT SDKS\WINDOWS\V7.0A\LIB\WINSPOOL.LIB
C:\PROGRAM FILES (X86)\MICROSOFT SDKS\WINDOWS\V7.0A\LIB\COMDLG32.LIB
C:\PROGRAM FILES (X86)\MICROSOFT SDKS\WINDOWS\V7.0A\LIB\ADVAPI32.LIB
C:\PROGRAM FILES (X86)\MICROSOFT SDKS\WINDOWS\V7.0A\LIB\SHELL32.LIB
C:\PROGRAM FILES (X86)\MICROSOFT SDKS\WINDOWS\V7.0A\LIB\OLE32.LIB
C:\PROGRAM FILES (X86)\MICROSOFT SDKS\WINDOWS\V7.0A\LIB\OLEAUT32.LIB
C:\PROGRAM FILES (X86)\MICROSOFT SDKS\WINDOWS\V7.0A\LIB\UUID.LIB
C:\PROGRAM FILES (X86)\MICROSOFT SDKS\WINDOWS\V7.0A\LIB\ODBC32.LIB
C:\PROGRAM FILES (X86)\MICROSOFT SDKS\WINDOWS\V7.0A\LIB\ODBCCP32.LIB
C:\!DEVELOPING\MIREA\QTCHESS\QTCHESSPROJECT\QTCHESS\QTCHESS\RELEASE\MOC_STARTWINDOW.OBJ
C:\!DEVELOPING\MIREA\QTCHESS\QTCHESSPROJECT\QTCHESS\QTCHESS\RELEASE\MAIN.OBJ
C:\!DEVELOPING\MIREA\QTCHESS\QTCHESSPROJECT\QTCHESS\QTCHESS\RELEASE\STARTWINDOW.OBJ
C:\WINDOWS\GLOBALIZATION\SORTING\SORTDEFAULT.NLS
C:\PROGRAM FILES (X86)\MICROSOFT VISUAL STUDIO 10.0\VC\LIB\MSVCPRT.LIB
C:\PROGRAM FILES (X86)\MICROSOFT VISUAL STUDIO 10.0\VC\LIB\MSVCRT.LIB
C:\PROGRAM FILES (X86)\MICROSOFT VISUAL STUDIO 10.0\VC\LIB\OLDNAMES.LIB
C:\WINDOWS\SYSTEM32\TZRES.DLL
